%YAML 1.1
%TAG !u! tag:unity3d.com,2011:
--- !u!74 &7400000
AnimationClip:
  m_ObjectHideFlags: 0
  m_CorrespondingSourceObject: {fileID: 0}
  m_PrefabInternal: {fileID: 0}
  m_Name: HeavyRunning
  serializedVersion: 6
  m_Legacy: 0
  m_Compressed: 0
  m_UseHighQualityCurve: 1
  m_RotationCurves: []
  m_CompressedRotationCurves: []
  m_EulerCurves: []
  m_PositionCurves: []
  m_ScaleCurves: []
  m_FloatCurves: []
  m_PPtrCurves:
  - curve:
    - time: 0
      value: {fileID: 21300000, guid: 233154bd57ae8d84d9e8ad7b768a0447, type: 3}
    - time: 0.083333336
      value: {fileID: 21300000, guid: 6abe88ea85eed264eb278ef9db4ee934, type: 3}
    - time: 0.16666667
      value: {fileID: 21300000, guid: 4c3b529b87497604c82df353da0926ad, type: 3}
    - time: 0.25
      value: {fileID: 21300000, guid: ebf217377b1e9944088d3954db9b696e, type: 3}
    - time: 0.33333334
      value: {fileID: 21300000, guid: 49cb125ca86ba424e99f96ca28bd0a43, type: 3}
    - time: 0.41666666
      value: {fileID: 21300000, guid: 30b7ef12fbd1c9f489dd02e39e9f1ac1, type: 3}
    - time: 0.5
      value: {fileID: 21300000, guid: 4f38d55ce8106c844bcec2e12dd11c06, type: 3}
    - time: 0.5833333
      value: {fileID: 21300000, guid: 753aab3798a0fe141ad85d119a2cdc9b, type: 3}
    - time: 0.6666667
      value: {fileID: 21300000, guid: cab07761c144b5a4686f0dd77c4ccc26, type: 3}
    - time: 0.75
      value: {fileID: 21300000, guid: 493328d815b75be44b5be0f389b18210, type: 3}
    - time: 0.8333333
      value: {fileID: 21300000, guid: 816af0a0a01f290428e6766918fcaeb1, type: 3}
    - time: 0.9166667
      value: {fileID: 21300000, guid: 4867ab797c75acd43bae30f648955c53, type: 3}
    - time: 1
      value: {fileID: 21300000, guid: 30901da9db33d91498eaf4744975ee53, type: 3}
    - time: 1.0833334
      value: {fileID: 21300000, guid: 2ac577a1ddd373e48ae11a269870c72d, type: 3}
    - time: 1.1666666
      value: {fileID: 21300000, guid: 6ae5db6e56a11b74cafe2162cffba462, type: 3}
    - time: 1.25
      value: {fileID: 21300000, guid: 55d47eae8abcc7d4eafa3d2d8d15beb0, type: 3}
    attribute: m_Sprite
    path: 
    classID: 212
    script: {fileID: 0}
  m_SampleRate: 12
  m_WrapMode: 0
  m_Bounds:
    m_Center: {x: 0, y: 0, z: 0}
    m_Extent: {x: 0, y: 0, z: 0}
  m_ClipBindingConstant:
    genericBindings:
    - serializedVersion: 2
      path: 0
      attribute: 0
      script: {fileID: 0}
      typeID: 212
      customType: 23
      isPPtrCurve: 1
    pptrCurveMapping:
    - {fileID: 21300000, guid: 233154bd57ae8d84d9e8ad7b768a0447, type: 3}
    - {fileID: 21300000, guid: 6abe88ea85eed264eb278ef9db4ee934, type: 3}
    - {fileID: 21300000, guid: 4c3b529b87497604c82df353da0926ad, type: 3}
    - {fileID: 21300000, guid: ebf217377b1e9944088d3954db9b696e, type: 3}
    - {fileID: 21300000, guid: 49cb125ca86ba424e99f96ca28bd0a43, type: 3}
    - {fileID: 21300000, guid: 30b7ef12fbd1c9f489dd02e39e9f1ac1, type: 3}
    - {fileID: 21300000, guid: 4f38d55ce8106c844bcec2e12dd11c06, type: 3}
    - {fileID: 21300000, guid: 753aab3798a0fe141ad85d119a2cdc9b, type: 3}
    - {fileID: 21300000, guid: cab07761c144b5a4686f0dd77c4ccc26, type: 3}
    - {fileID: 21300000, guid: 493328d815b75be44b5be0f389b18210, type: 3}
    - {fileID: 21300000, guid: 816af0a0a01f290428e6766918fcaeb1, type: 3}
    - {fileID: 21300000, guid: 4867ab797c75acd43bae30f648955c53, type: 3}
    - {fileID: 21300000, guid: 30901da9db33d91498eaf4744975ee53, type: 3}
    - {fileID: 21300000, guid: 2ac577a1ddd373e48ae11a269870c72d, type: 3}
    - {fileID: 21300000, guid: 6ae5db6e56a11b74cafe2162cffba462, type: 3}
    - {fileID: 21300000, guid: 55d47eae8abcc7d4eafa3d2d8d15beb0, type: 3}
  m_AnimationClipSettings:
    serializedVersion: 2
    m_AdditiveReferencePoseClip: {fileID: 0}
    m_AdditiveReferencePoseTime: 0
    m_StartTime: 0
    m_StopTime: 1.3333334
    m_OrientationOffsetY: 0
    m_Level: 0
    m_CycleOffset: 0
    m_HasAdditiveReferencePose: 0
    m_LoopTime: 1
    m_LoopBlend: 0
    m_LoopBlendOrientation: 0
    m_LoopBlendPositionY: 0
    m_LoopBlendPositionXZ: 0
    m_KeepOriginalOrientation: 0
    m_KeepOriginalPositionY: 1
    m_KeepOriginalPositionXZ: 0
    m_HeightFromFeet: 0
    m_Mirror: 0
  m_EditorCurves: []
  m_EulerEditorCurves: []
  m_HasGenericRootTransform: 0
  m_HasMotionFloatCurves: 0
  m_GenerateMotionCurves: 0
  m_Events: []
