%YAML 1.1
%TAG !u! tag:unity3d.com,2011:
--- !u!74 &7400000
AnimationClip:
  m_ObjectHideFlags: 0
  m_CorrespondingSourceObject: {fileID: 0}
  m_PrefabInternal: {fileID: 0}
  m_Name: Heavy Idle
  serializedVersion: 6
  m_Legacy: 0
  m_Compressed: 0
  m_UseHighQualityCurve: 1
  m_RotationCurves: []
  m_CompressedRotationCurves: []
  m_EulerCurves: []
  m_PositionCurves: []
  m_ScaleCurves: []
  m_FloatCurves: []
  m_PPtrCurves:
  - curve:
    - time: 0
      value: {fileID: 21300000, guid: b91b1fa3cfdf7f7468c80072edb7833b, type: 3}
    - time: 0.083333336
      value: {fileID: 21300000, guid: 5337e892543a9544ba8fc2b8ef5df861, type: 3}
    - time: 0.16666667
      value: {fileID: 21300000, guid: 9c3a00fdb88bec54d9808e5507a3e37e, type: 3}
    - time: 0.25
      value: {fileID: 21300000, guid: e6531f593b22f6e4b80e4549f8b5345d, type: 3}
    - time: 0.33333334
      value: {fileID: 21300000, guid: 033a71620a0b6814ab95f722d96ad754, type: 3}
    - time: 0.41666666
      value: {fileID: 21300000, guid: f4c513ce387b6964bb27eaf9ec6d3857, type: 3}
    - time: 0.5
      value: {fileID: 21300000, guid: 2c8be48002d45d34dba62f0b1b31803c, type: 3}
    - time: 0.5833333
      value: {fileID: 21300000, guid: 7a4110918ed52dd43875bd692639a093, type: 3}
    - time: 0.6666667
      value: {fileID: 21300000, guid: 6a8d437bf03de084bbc810dbabbd2380, type: 3}
    - time: 0.75
      value: {fileID: 21300000, guid: 42ec8bccf5a19014397273b46691746c, type: 3}
    - time: 0.8333333
      value: {fileID: 21300000, guid: 44976d70c00b7c94f81b13a767aec7c8, type: 3}
    - time: 0.9166667
      value: {fileID: 21300000, guid: 3053ab286fbff47449fa01972e48935e, type: 3}
    - time: 1
      value: {fileID: 21300000, guid: 97d4ee73866adbf4daaf90eaecfbd83d, type: 3}
    - time: 1.0833334
      value: {fileID: 21300000, guid: 9731def1513f2ec47876abebec58a12c, type: 3}
    - time: 1.1666666
      value: {fileID: 21300000, guid: 73ae46a95d7d43b4998e92f2bac3ce0b, type: 3}
    - time: 1.25
      value: {fileID: 21300000, guid: da1d82d53b91a0246ae27b1b0c0de956, type: 3}
    - time: 1.3333334
      value: {fileID: 21300000, guid: 5d8a53a30591dc54ea31d2108c2d8952, type: 3}
    - time: 1.4166666
      value: {fileID: 21300000, guid: 41c60a509f7fe5642961299a9369547a, type: 3}
    - time: 1.5
      value: {fileID: 21300000, guid: b3eb13521284eba4ebb3fc2f4fd11e90, type: 3}
    - time: 1.5833334
      value: {fileID: 21300000, guid: e5c6283abc72115409e7f714e718385e, type: 3}
    - time: 1.6666666
      value: {fileID: 21300000, guid: 195dce9dd31e9c34bb8d859511bca14b, type: 3}
    - time: 1.75
      value: {fileID: 21300000, guid: ec5049dc2c7b93c46a034a5b69c4d0f0, type: 3}
    - time: 1.8333334
      value: {fileID: 21300000, guid: 984f8b70544ad544f823eef47690502c, type: 3}
    - time: 1.9166666
      value: {fileID: 21300000, guid: 59feff94fa5d07447ae1b86bd2a1a78d, type: 3}
    attribute: m_Sprite
    path: 
    classID: 212
    script: {fileID: 0}
  m_SampleRate: 12
  m_WrapMode: 0
  m_Bounds:
    m_Center: {x: 0, y: 0, z: 0}
    m_Extent: {x: 0, y: 0, z: 0}
  m_ClipBindingConstant:
    genericBindings:
    - serializedVersion: 2
      path: 0
      attribute: 0
      script: {fileID: 0}
      typeID: 212
      customType: 23
      isPPtrCurve: 1
    pptrCurveMapping:
    - {fileID: 21300000, guid: b91b1fa3cfdf7f7468c80072edb7833b, type: 3}
    - {fileID: 21300000, guid: 5337e892543a9544ba8fc2b8ef5df861, type: 3}
    - {fileID: 21300000, guid: 9c3a00fdb88bec54d9808e5507a3e37e, type: 3}
    - {fileID: 21300000, guid: e6531f593b22f6e4b80e4549f8b5345d, type: 3}
    - {fileID: 21300000, guid: 033a71620a0b6814ab95f722d96ad754, type: 3}
    - {fileID: 21300000, guid: f4c513ce387b6964bb27eaf9ec6d3857, type: 3}
    - {fileID: 21300000, guid: 2c8be48002d45d34dba62f0b1b31803c, type: 3}
    - {fileID: 21300000, guid: 7a4110918ed52dd43875bd692639a093, type: 3}
    - {fileID: 21300000, guid: 6a8d437bf03de084bbc810dbabbd2380, type: 3}
    - {fileID: 21300000, guid: 42ec8bccf5a19014397273b46691746c, type: 3}
    - {fileID: 21300000, guid: 44976d70c00b7c94f81b13a767aec7c8, type: 3}
    - {fileID: 21300000, guid: 3053ab286fbff47449fa01972e48935e, type: 3}
    - {fileID: 21300000, guid: 97d4ee73866adbf4daaf90eaecfbd83d, type: 3}
    - {fileID: 21300000, guid: 9731def1513f2ec47876abebec58a12c, type: 3}
    - {fileID: 21300000, guid: 73ae46a95d7d43b4998e92f2bac3ce0b, type: 3}
    - {fileID: 21300000, guid: da1d82d53b91a0246ae27b1b0c0de956, type: 3}
    - {fileID: 21300000, guid: 5d8a53a30591dc54ea31d2108c2d8952, type: 3}
    - {fileID: 21300000, guid: 41c60a509f7fe5642961299a9369547a, type: 3}
    - {fileID: 21300000, guid: b3eb13521284eba4ebb3fc2f4fd11e90, type: 3}
    - {fileID: 21300000, guid: e5c6283abc72115409e7f714e718385e, type: 3}
    - {fileID: 21300000, guid: 195dce9dd31e9c34bb8d859511bca14b, type: 3}
    - {fileID: 21300000, guid: ec5049dc2c7b93c46a034a5b69c4d0f0, type: 3}
    - {fileID: 21300000, guid: 984f8b70544ad544f823eef47690502c, type: 3}
    - {fileID: 21300000, guid: 59feff94fa5d07447ae1b86bd2a1a78d, type: 3}
  m_AnimationClipSettings:
    serializedVersion: 2
    m_AdditiveReferencePoseClip: {fileID: 0}
    m_AdditiveReferencePoseTime: 0
    m_StartTime: 0
    m_StopTime: 2
    m_OrientationOffsetY: 0
    m_Level: 0
    m_CycleOffset: 0
    m_HasAdditiveReferencePose: 0
    m_LoopTime: 1
    m_LoopBlend: 0
    m_LoopBlendOrientation: 0
    m_LoopBlendPositionY: 0
    m_LoopBlendPositionXZ: 0
    m_KeepOriginalOrientation: 0
    m_KeepOriginalPositionY: 1
    m_KeepOriginalPositionXZ: 0
    m_HeightFromFeet: 0
    m_Mirror: 0
  m_EditorCurves: []
  m_EulerEditorCurves: []
  m_HasGenericRootTransform: 0
  m_HasMotionFloatCurves: 0
  m_GenerateMotionCurves: 0
  m_Events: []
